OrthoFoto BBOX:
gdalwarp -s_srs EPSG:21781 -t_srs EPSG:3857 -te 1016350 5861395 1023149 5865987 si50_Clip.tif si50_.tif

grosse BBOX:
gdalwarp -s_srs EPSG:21781 -t_srs EPSG:3857 -te 1007291 5853670 1032069 5870083 
