id;rotation;lat;lon;x;y;height
55;-135;46.51158171;9.146323655;731052.789;152567.5;1690.561
56;-115;46.51275094;9.145472234;730984.631;152696.025;1701.521
69;-115;46.51314057;9.143748501;730851.429;152736.451;1701.521
70;-88;46.512;9.1421;730737.308;152510.478;1701.521
72;-115;46.51136616;9.14007181;730573.599;152533.119;1705.782
73;-115;46.51111007;9.140361972;730596.481;152505.14;1705.839
74;-105;46.51073407;9.140477339;730606.24;152463.544;1706.71
75;-125;46.51030355;9.139786485;730554.267;152414.546;1709.568
76;-125;46.50945264;9.140661378;730623.452;152321.433;1708.88
77;-115;46.51029146;9.138856699;730482.951;152411.656;1712.048
78;-115;46.51034359;9.13846467;730452.744;152416.797;1712.13
79;-105;46.50995368;9.138574387;730462.102;152373.646;1713.858
80;-120;46.50932693;9.13769464;730396.105;152302.526;1717.393
81;-120;46.50956106;9.137136342;730352.701;152327.62;1718.516
82;-120;46.50917538;9.136826349;730329.842;152284.241;1719.912
83;-125;46.5087273;9.138841188;730485.529;152237.791;1736.215
84;-125;46.508324;9.138947676;730494.672;152193.145;1736.215
85;-125;46.50833935;9.138652415;730471.978;152194.36;1735.787